[0.000][INFO]:      ChromeDriver 23.0.1240.0 /usr/bin/chromedriver
[0.994][FINE]:      Initializing session with capabilities {
   "browserName": "chrome",
   "chromeOptions": {
      "args": [  ],
      "binary": "",
      "extensions": [  ]
   },
   "javascriptEnabled": true,
   "platform": "ANY",
   "version": ""
}

[0.995][INFO]:      Launching chrome: /Applications/Google Chrome.app/Contents/MacOS/Google Chrome --enable-logging --log-level=1 --disable-hang-monitor --disable-prompt-on-repost --dom-automation --full-memory-crash-report --no-default-browser-check --no-first-run --disable-background-networking --disable-sync --disable-translate --disable-web-resources --safebrowsing-disable-auto-update --safebrowsing-disable-download-protection --disable-client-side-phishing-detection --disable-component-update --disable-default-apps --use-mock-keychain --ignore-certificate-errors about:blank
[1.725][INFO]:      Connected to Chrome successfully. Version: 22.0.1229.94
[1.739][FINE]:      Command received (/session/36514884af2b55c2678c2f48563a1e9d)
[1.739][FINE]:      Command finished (/session/36514884af2b55c2678c2f48563a1e9d) with response {
   "sessionId": "36514884af2b55c2678c2f48563a1e9d",
   "status": 0,
   "value": {
      "acceptSslCerts": false,
      "applicationCacheEnabled": false,
      "browserConnectionEnabled": false,
      "browserName": "chrome",
      "chrome.chromedriverVersion": "23.0.1240.0",
      "chrome.nativeEvents": false,
      "cssSelectorsEnabled": true,
      "databaseEnabled": false,
      "handlesAlerts": true,
      "javascriptEnabled": true,
      "locationContextEnabled": false,
      "nativeEvents": true,
      "platform": "mac",
      "rotatable": false,
      "takesScreenshot": true,
      "version": "22.0.1229.94",
      "webStorageEnabled": true
   }
}

[1.747][FINE]:      Command received (/session/36514884af2b55c2678c2f48563a1e9d/timeouts/implicit_wait) with params {
   "ms": 3000.0,
   "sessionId": "36514884af2b55c2678c2f48563a1e9d"
}

[1.747][FINER]:     Waiting for all views to stop loading...
[1.756][FINER]:     Done waiting for all views to stop loading
[1.756][FINER]:     Waiting for all views to stop loading...
[1.756][FINER]:     Done waiting for all views to stop loading
[1.756][FINE]:      Command finished (/session/36514884af2b55c2678c2f48563a1e9d/timeouts/implicit_wait) with response {
   "sessionId": "36514884af2b55c2678c2f48563a1e9d",
   "status": 0,
   "value": {

   }
}

[1.762][FINE]:      Command received (/session/36514884af2b55c2678c2f48563a1e9d/url) with params {
   "sessionId": "36514884af2b55c2678c2f48563a1e9d",
   "url": "localhost:8000"
}

[1.762][FINER]:     Waiting for all views to stop loading...
[1.762][FINER]:     Done waiting for all views to stop loading
[1.843][FINER]:     Waiting for all views to stop loading...
[1.843][FINER]:     Done waiting for all views to stop loading
[1.843][FINE]:      Command finished (/session/36514884af2b55c2678c2f48563a1e9d/url) with response {
   "sessionId": "36514884af2b55c2678c2f48563a1e9d",
   "status": 0,
   "value": {

   }
}

[2.763][FINE]:      Command received (/session/36514884af2b55c2678c2f48563a1e9d/element) with params {
   "sessionId": "36514884af2b55c2678c2f48563a1e9d",
   "using": "tag name",
   "value": "head"
}

[2.763][FINER]:     Waiting for all views to stop loading...
[2.764][FINER]:     Done waiting for all views to stop loading
[2.788][FINER]:     Waiting for all views to stop loading...
[2.789][FINER]:     Done waiting for all views to stop loading
[2.789][FINE]:      Command finished (/session/36514884af2b55c2678c2f48563a1e9d/element) with response {
   "sessionId": "36514884af2b55c2678c2f48563a1e9d",
   "status": 0,
   "value": {
      "ELEMENT": ":wdc:1351530400160"
   }
}

[3.062][FINE]:      Command received (/session/36514884af2b55c2678c2f48563a1e9d/element) with params {
   "sessionId": "36514884af2b55c2678c2f48563a1e9d",
   "using": "tag name",
   "value": "head"
}

[3.062][FINER]:     Waiting for all views to stop loading...
[3.062][FINER]:     Done waiting for all views to stop loading
[3.074][FINER]:     Waiting for all views to stop loading...
[3.075][FINER]:     Done waiting for all views to stop loading
[3.075][FINE]:      Command finished (/session/36514884af2b55c2678c2f48563a1e9d/element) with response {
   "sessionId": "36514884af2b55c2678c2f48563a1e9d",
   "status": 0,
   "value": {
      "ELEMENT": ":wdc:1351530400160"
   }
}

[4.056][FINE]:      Command received (/session/36514884af2b55c2678c2f48563a1e9d/element) with params {
   "sessionId": "36514884af2b55c2678c2f48563a1e9d",
   "using": "tag name",
   "value": "body"
}

[4.056][FINER]:     Waiting for all views to stop loading...
[4.057][FINER]:     Done waiting for all views to stop loading
[4.075][FINER]:     Waiting for all views to stop loading...
[4.075][FINER]:     Done waiting for all views to stop loading
[4.075][FINE]:      Command finished (/session/36514884af2b55c2678c2f48563a1e9d/element) with response {
   "sessionId": "36514884af2b55c2678c2f48563a1e9d",
   "status": 0,
   "value": {
      "ELEMENT": ":wdc:1351530400161"
   }
}

[4.162][FINE]:      Command received (/session/36514884af2b55c2678c2f48563a1e9d/element) with params {
   "sessionId": "36514884af2b55c2678c2f48563a1e9d",
   "using": "id",
   "value": "idTourButton"
}

[4.162][FINER]:     Waiting for all views to stop loading...
[4.162][FINER]:     Done waiting for all views to stop loading
[4.178][FINER]:     Waiting for all views to stop loading...
[4.179][FINER]:     Done waiting for all views to stop loading
[4.179][FINE]:      Command finished (/session/36514884af2b55c2678c2f48563a1e9d/element) with response {
   "sessionId": "36514884af2b55c2678c2f48563a1e9d",
   "status": 0,
   "value": {
      "ELEMENT": ":wdc:1351530400162"
   }
}

[11.863][FINE]:     Command received (/session/36514884af2b55c2678c2f48563a1e9d/url)
[11.863][FINER]:    Waiting for all views to stop loading...
[11.863][FINER]:    Done waiting for all views to stop loading
[11.868][FINER]:    Waiting for all views to stop loading...
[11.868][FINER]:    Done waiting for all views to stop loading
[11.868][FINE]:     Command finished (/session/36514884af2b55c2678c2f48563a1e9d/url) with response {
   "sessionId": "36514884af2b55c2678c2f48563a1e9d",
   "status": 0,
   "value": "http://localhost:8000/"
}

[11.871][FINE]:     Command received (/session/36514884af2b55c2678c2f48563a1e9d/window_handle)
[11.871][FINER]:    Waiting for all views to stop loading...
[11.872][FINER]:    Done waiting for all views to stop loading
[11.872][FINER]:    Waiting for all views to stop loading...
[11.872][FINER]:    Done waiting for all views to stop loading
[11.872][FINE]:     Command finished (/session/36514884af2b55c2678c2f48563a1e9d/window_handle) with response {
   "sessionId": "36514884af2b55c2678c2f48563a1e9d",
   "status": 0,
   "value": "f1-2"
}

[11.876][FINE]:     Command received (/session/36514884af2b55c2678c2f48563a1e9d/orientation)
[11.876][FINE]:     Command finished (/session/36514884af2b55c2678c2f48563a1e9d/orientation) with response {
   "sessionId": "36514884af2b55c2678c2f48563a1e9d",
   "status": 0,
   "value": {
      "acceptSslCerts": false,
      "applicationCacheEnabled": false,
      "browserConnectionEnabled": false,
      "browserName": "chrome",
      "chrome.chromedriverVersion": "23.0.1240.0",
      "chrome.nativeEvents": false,
      "cssSelectorsEnabled": true,
      "databaseEnabled": false,
      "handlesAlerts": true,
      "javascriptEnabled": true,
      "locationContextEnabled": false,
      "nativeEvents": true,
      "platform": "mac",
      "rotatable": false,
      "takesScreenshot": true,
      "version": "22.0.1229.94",
      "webStorageEnabled": true
   }
}

[11.879][FINE]:     Command received (/session/36514884af2b55c2678c2f48563a1e9d/source)
[11.879][FINER]:    Waiting for all views to stop loading...
[11.879][FINER]:    Done waiting for all views to stop loading
[11.884][FINER]:    Waiting for all views to stop loading...
[11.884][FINER]:    Done waiting for all views to stop loading
[11.884][FINE]:     Command finished (/session/36514884af2b55c2678c2f48563a1e9d/source) with response {
   "sessionId": "36514884af2b55c2678c2f48563a1e9d",
   "status": 0,
   "value": "\u003Chtml\u003E\u003Chead\u003E\n        \u003C/head\u003E\u003Cbody\u003Eoerekro\n        \u003Ctitle\u003EBLablable\u003C/title\u003E\n    \n    \n        \u003Cnav..."
}

[11.887][FINE]:     Command received (/session/36514884af2b55c2678c2f48563a1e9d/title)
[11.887][FINER]:    Waiting for all views to stop loading...
[11.888][FINER]:    Done waiting for all views to stop loading
[11.892][FINER]:    Waiting for all views to stop loading...
[11.892][FINER]:    Done waiting for all views to stop loading
[11.892][FINE]:     Command finished (/session/36514884af2b55c2678c2f48563a1e9d/title) with response {
   "sessionId": "36514884af2b55c2678c2f48563a1e9d",
   "status": 0,
   "value": "BLablable"
}

[11.896][FINE]:     Command received (/session/36514884af2b55c2678c2f48563a1e9d/window_handles)
[11.896][FINER]:    Waiting for all views to stop loading...
[11.897][FINER]:    Done waiting for all views to stop loading
[11.897][FINER]:    Waiting for all views to stop loading...
[11.898][FINER]:    Done waiting for all views to stop loading
[11.898][FINE]:     Command finished (/session/36514884af2b55c2678c2f48563a1e9d/window_handles) with response {
   "sessionId": "36514884af2b55c2678c2f48563a1e9d",
   "status": 0,
   "value": [ "f1-2" ]
}

